Global Landslide Catalog Analysis
…
4. Handling Missing Data

Let us address the above columns with missing data one-by-one

# Handling missing data in "injury_count" column
globalLandslide_df$injury_count[is.na(globalLandslide_df$injury_count)] = 0

# Handling missing data in "admin_division_population" column
globalLandslide_df$admin_division_population[is.na(globalLandslide_df$admin_division_population)] = 0

# Handling missing data in "fatality_count" column
globalLandslide_df[!is.na(globalLandslide_df$fatality_count),]

## # A tibble: 9,648 x 20
##    source_name          event_id event_date event_time event_title event_descripti~
##    <chr>                   <int> <chr>      <lgl>      <chr>       <chr>           
##  1 AGU                       684 08/01/200~ NA         "Sigou Vil~ "occurred early~
##  2 Oregonian                 956 01/02/200~ NA         "Lake Oswe~ "Hours of heavy~
##  3 CBS News                  973 01/19/200~ NA         "San Ramon~ "(CBS/AP) At le~
##  4 Reuters                  1067 07/31/200~ NA         "Dailekh d~ "One person was~
##  5 The Freeman              2603 10/16/201~ NA         "sitio Bak~ "Another landsl~
##  6 BusinessWorld Online     4203 02/16/201~ NA         "Paguite, ~ "Thursdays l~
##  7 The Spokesman-Review     4290 03/30/201~ NA         "Pend Orei~ "In Pend Oreill~
##  8 Crnica Diaria           225 09/02/200~ NA         "3 killed ~ "3 killed, incl~
##  9 UPI                       873 11/01/200~ NA         "Lincang C~ "The report sai~
## 10 BBC News                  874 11/01/200~ NA         "Kunming, ~ "Yunnan has so ~
## # ... with 9,638 more rows, and 14 more variables: location_description <chr>,
## #   location_accuracy <chr>, landslide_category <chr>, landslide_trigger <chr>,
## #   landslide_size <chr>, fatality_count <int>, injury_count <dbl>,
## #   storm_name <chr>, country_name <chr>, country_code <chr>,
## #   admin_division_name <chr>, admin_division_population <dbl>,
## #   longitude <dbl>, latitude <dbl>
…
3. Plotting only those coutries with total injury more than 50 on a Pie Plot

landslide_distribution <- globalLandslide_df %>% 
  group_by(country_name) %>% 
  summarise(sum_injuries = sum(injury_count)) %>% 
  arrange(-sum_injuries)

landslide_distribution

## # A tibble: 141 x 2
##    country_name    sum_injuries
##    <chr>                  <dbl>
##  1 Guatemala                408
##  2 China                    318
##  3 Peru                     277
##  4 Nepal                    257
##  5 Myanmar [Burma]          224
##  6 India                    217
##  7 Bangladesh               170
##  8 Philippines              138
##  9 Indonesia                129
## 10 Brazil                   103
## # ... with 131 more rows
…
The above plot shows the countries which have more than 50 injury_count in any of the landslides.

Hypothesis testing

In this section, we will move on to finding further answers to the hypothesis question listed above.

Now, lets find out about the variables with character datatypes

data_char<-globalLandslide_df %>% dplyr::select(where(is.character))

for(i in colnames(data_char)){
  print(unique(data_char[i]))
}

## # A tibble: 3,319 x 1
##    source_name         
##    <chr>               
##  1 AGU                 
##  2 Oregonian           
##  3 CBS News            
##  4 Reuters             
##  5 The Freeman         
##  6 BusinessWorld Online
##  7 The Spokesman-Review
##  8 Crnica Diaria     
##  9 MagicValley.com     
## 10 UPI                 
## # ... with 3,309 more rows
## # A tibble: 2,670 x 1
##    event_date
##    <chr>     
##  1 08/01/2008
##  2 01/02/2009
##  3 01/19/2007
##  4 07/31/2009
##  5 10/16/2010
##  6 02/16/2012
##  7 03/30/2012
##  8 09/02/2007
##  9 09/05/2007
## 10 11/01/2008
## # ... with 2,660 more rows
## # A tibble: 269 x 1
##    event_time 
##    <chr>      
##  1 12:00:00 AM
##  2 02:00:00 AM
##  3 12:00:00 PM
##  4 10:24:00 PM
##  5 08:30:00 PM
##  6 01:41:00 AM
##  7 01:00:00 AM
##  8 06:00:00 AM
##  9 08:50:00 AM
## 10 01:00:00 PM
## # ... with 259 more rows
## # A tibble: 8,406 x 1
##    event_title                                                     
##    <chr>                                                           
##  1 "Sigou Village, Loufan County, Shanxi Province"                 
##  2 "Lake Oswego, Oregon"                                           
##  3 "San Ramon district, 195 miles northeast of the capital, Lima, "
##  4 "Dailekh district"                                              
##  5 "sitio Bakilid in barangay Lahug"                               
##  6 "Paguite, Abuyog, Leyte"                                        
##  7 "Pend Oreille County, State Route 20 near Usk, OR"              
##  8 "3 killed in Acapulco"                                          
##  9 "Warm Springs Road, Idaho"                                      
## 10 "Lincang City, Yunnan, Yunnan-Tibet No. 214 highway."           
## # ... with 8,396 more rows
## # A tibble: 7,879 x 1
##    event_description                                                            
##    <chr>                                                                        
##  1 "occurred early in morning, 11 villagers buried in 7 houses"                 
##  2 "Hours of heavy rain are to blame for an overnight mudslide in Lake Oswego. "
##  3 "(CBS/AP) At least 10 people died and as many as 80 were still missing Wedne~
##  4 "One person was killed in Dailekh district, police said."                    
##  5 "Another landslide in sitio Bakilid in barangay Lahug also left two families~
##  6 "Thursdays landslides were noted in Barangays Burubudan, Tadoc and Paguit~
##  7 "In Pend Oreille County, a mudslide on State Route 20 near Usk forced Washin~
##  8 "3 killed, including 2 children when rocks fell on their homes"              
##  9 "5 feet deep mud, Hotshot crew was trapped while cleaning debris from fire"  
## 10 "The report said heavy rainfall since Oct. 24 had hit 13 cities and counties~
## # ... with 7,869 more rows
## # A tibble: 8,322 x 1
##    location_description                                            
##    <chr>                                                           
##  1 "Sigou Village, Loufan County, Shanxi Province"                 
##  2 "Lake Oswego, Oregon"                                           
##  3 "San Ramon district, 195 miles northeast of the capital, Lima, "
##  4 "Dailekh district"                                              
##  5 "sitio Bakilid in barangay Lahug"                               
##  6 "Paguite, Abuyog, Leyte"                                        
##  7 "Pend Oreille County, State Route 20 near Usk, OR"              
##  8 "calle Granjas, Ampliacin Miguel de la Madrid, Acapulco"      
##  9 "Warm Springs Road, Idaho"                                      
## 10 "Lincang City, Yunnan, Yunnan-Tibet No. 214 highway."           
## # ... with 8,312 more rows
…
##  9 snowfall_snowmelt      
## 10 flooding               
## 11 dam_embankment_collapse
## 12 earthquake             
## 13 construction           
## 14 other                  
## 15 volcano                
## 16 freeze_thaw            
## # A tibble: 3 x 1
##   landslide_size
##   <chr>         
## 1 large         
## 2 small         
## 3 medium        
## # A tibble: 201 x 1
##    storm_name                               
##    <chr>                                    
##  1 ""                                       
##  2 "Supertyphoon Juan (Megi)"               
##  3 "Tropical Storm Henrietta"               
##  4 "Hurricane Dora"                         
##  5 "Agaton"                                 
##  6 "Typhoon Nina"                           
##  7 "Tropical Depression 16"                 
##  8 "Typhoon No. 2 and March 11th earthquake"
##  9 "Typhoon Nepartak"                       
## 10 "Tropical Storm Alma"                    
## # ... with 191 more rows
## # A tibble: 141 x 1
##    country_name 
##    <chr>        
##  1 China        
##  2 United States
##  3 Peru         
##  4 Nepal        
##  5 Philippines  
##  6 Mexico       
##  7 Algeria      
##  8 Malaysia     
##  9 Indonesia    
## 10 Sierra Leone 
## # ... with 131 more rows
## # A tibble: 140 x 1
##    country_code
##    <chr>       
##  1 CN          
##  2 US          
##  3 PE          
##  4 NP          
##  5 PH          
##  6 MX          
##  7 DZ          
##  8 MY          
##  9 ID          
## 10 SL          
## # ... with 130 more rows
## # A tibble: 888 x 1
##    admin_division_name
##    <chr>              
##  1 Shaanxi            
##  2 Oregon             
##  3 Junn              
##  4 Mid Western        
##  5 Central Visayas    
##  6 Eastern Visayas    
##  7 Washington         
##  8 Sinaloa            
##  9 Idaho              
## 10 Yunnan             
## # ... with 878 more rows
…
